rv32i/Fetch_pipeline/src-tb/waveform.vcd
$version Generated by VerilatedVcd $end
$date Wed May 22 15:24:04 2024
 $end
$timescale   1ps $end

 $scope module TOP $end
  $var wire  1 u clk $end
  $var wire 32 w instruction [31:0] $end
  $var wire  1 v rst $end
  $scope module core $end
   $var wire  1 \ DM_Load $end
   $var wire 32 W DM_alu_res_out [31:0] $end
   $var wire 32 F DM_load_data_in [31:0] $end
   $var wire 32 X DM_store_data_out [31:0] $end
   $var wire 32 z INSTRUCTION [31:0] $end
   $var wire  1 u clk $end
   $var wire  4 ] data_mem_mask [3:0] $end
   $var wire  1 Z data_mem_request $end
   $var wire  1 $ data_mem_valid $end
   $var wire  1 [ data_mem_we_re $end
   $var wire 32 w instruction [31:0] $end
   $var wire  4 | instruction_mem_mask [3:0] $end
   $var wire  1 Y instruction_mem_request $end
   $var wire  1 { instruction_mem_we_re $end
   $var wire 32 E instruction_o [31:0] $end
   $var wire 32 V pc_address [31:0] $end
   $var wire  1 v rst $end
   $var wire  1 # valid $end
   $scope module u_Core10 $end
    $var wire 32 z ADDRESS [31:0] $end
    $var wire 32 ~ ALU_CONTROL [31:0] $end
    $var wire  1 f Branch $end
    $var wire 32 z DATA_WIDTH [31:0] $end
    $var wire  1 \ DM_Load $end
    $var wire 32 W DM_alu_res_out [31:0] $end
    $var wire 32 F DM_load_data_in [31:0] $end
    $var wire 32 X DM_store_data_out [31:0] $end
    $var wire  1 $ DM_valid $end
    $var wire 32 z INSTRUCTION [31:0] $end
    $var wire  1 d Jalr $end
    $var wire  1 \ Load $end
    $var wire  1 [ Store $end
    $var wire 32 V address_out [31:0] $end
    $var wire  4 c alu_control [3:0] $end
    $var wire 32 W alu_res_out [31:0] $end
    $var wire  1 g branch_result $end
    $var wire  1 u clk $end
    $var wire  4 ] data_mem_mask [3:0] $end
    $var wire  1 Z data_mem_request $end
    $var wire  1 [ data_mem_we_re $end
    $var wire 32 E instruction [31:0] $end
    $var wire 32 H instruction_fetch_pp [31:0] $end
    $var wire  4 | instruction_mem_mask [3:0] $end
    $var wire  1 Y instruction_mem_request $end
    $var wire  1 { instruction_mem_we_re $end
    $var wire 32 E instruction_out [31:0] $end
    $var wire  1 [ mem_en $end
    $var wire  2 h mem_to_reg [1:0] $end
    $var wire  1 e next_sel $end
    $var wire 32 G next_sel_address [31:0] $end
    $var wire 32 ` opa_mux_out [31:0] $end
    $var wire 32 _ opb_mux_out [31:0] $end
    $var wire 32 a pre_pc [31:0] $end
    $var wire 32 I pre_pc_fetch_pp [31:0] $end
    $var wire 32 x rd_wb_data [31:0] $end
    $var wire  1 v rst $end
    $var wire 32 b wrap_load_out [31:0] $end
    $scope module u_Decode_stage0 $end
     $var wire 32 ~ ALU_CONTROL [31:0] $end
     $var wire  1 f Branch $end
     $var wire 32 z DATA_WIDTH [31:0] $end
     $var wire  1 $ DM_valid $end
     $var wire 32 z INSTRUCTION [31:0] $end
     $var wire  1 d Jalr $end
     $var wire  1 \ Load $end
     $var wire  1 [ Store $end
     $var wire  4 c alu_control [3:0] $end
     $var wire  1 f branch $end
     $var wire  1 g branch_result $end
     $var wire  1 u clk $end
     $var wire 32 K i_imme [31:0] $end
     $var wire 32 n imm_mux_out [31:0] $end
     $var wire  3 m imm_sel [2:0] $end
     $var wire 32 H instruction [31:0] $end
     $var wire  1 [ mem_en $end
     $var wire  2 h mem_to_reg [1:0] $end
     $var wire  1 e next_sel $end
     $var wire 32 k op_a [31:0] $end
     $var wire 32 l op_b [31:0] $end
     $var wire 32 ` opa_mux_out [31:0] $end
     $var wire 32 _ opb_mux_out [31:0] $end
     $var wire  1 i operand_a $end
     $var wire  1 j operand_b $end
     $var wire 32 I pc [31:0] $end
     $var wire  1 y reg_write $end
     $var wire  1 v rst $end
     $var wire 32 x rwd_data_out [31:0] $end
     $var wire 32 L s_imme [31:0] $end
     $var wire 32 M sb_imme [31:0] $end
     $var wire 32 O u_imme [31:0] $end
     $var wire 32 N uj_imme [31:0] $end
     $scope module u_branch0 $end
      $var wire 32 z DataWidth [31:0] $end
      $var wire  1 f en $end
      $var wire  3 Q fun3 [2:0] $end
      $var wire 32 k operand_a [31:0] $end
      $var wire 32 l operand_b [31:0] $end
      $var wire  1 g result $end
     $upscope $end
     $scope module u_cu0 $end
      $var wire 32 ~ ALU_CONTROL [31:0] $end
      $var wire  1 f Branch $end
      $var wire  1 $ DM_valid $end
      $var wire 32 "! FUNCTION3 [31:0] $end
      $var wire  1 d Jalr $end
      $var wire  1 \ Load $end
      $var wire 32 #! OPCODE [31:0] $end
      $var wire  1 [ Store $end
      $var wire  4 c alu_control [3:0] $end
      $var wire  1 r auipc $end
      $var wire  1 f branch $end
      $var wire  3 Q fun3 [2:0] $end
      $var wire  1 P fun7 $end
      $var wire  1 p i_type $end
      $var wire  3 m imm_sel [2:0] $end
      $var wire  1 e jal $end
      $var wire  1 d jalr $end
      $var wire  1 \ load $end
      $var wire  1 q lui $end
      $var wire  1 [ mem_en $end
      $var wire  2 h mem_to_reg [1:0] $end
      $var wire  1 e next_sel $end
      $var wire  7 R opcode_i [6:0] $end
      $var wire  1 i operand_a_o $end
      $var wire  1 j operand_b_o $end
      $var wire  1 o r_type $end
      $var wire  1 y reg_write_o $end
      $var wire  1 [ store $end
     $upscope $end
     $scope module u_immediate_gene0 $end
      $var wire 32 z INSTRUCTION [31:0] $end
      $var wire 32 K i_imme [31:0] $end
      $var wire 32 H instruction [31:0] $end
      $var wire 32 L s_imme [31:0] $end
      $var wire 32 M sb_imme [31:0] $end
      $var wire 32 O u_imme [31:0] $end
      $var wire 32 N uj_imme [31:0] $end
     $upscope $end
     $scope module u_registerfile0 $end
      $var wire 32 $! AddrRegWidth [31:0] $end
      $var wire 32 z Data_Width [31:0] $end
      $var wire  1 u clk $end
      $var wire 32 x data [31:0] $end
      $var wire  1 y en $end
      $var wire 32 D i [31:0] $end
      $var wire 32 k op_a [31:0] $end
      $var wire 32 l op_b [31:0] $end
      $var wire  5 U rd [4:0] $end
      $var wire 32 % register(1) [31:0] $end
      $var wire 32 . register(10) [31:0] $end
      $var wire 32 / register(11) [31:0] $end
      $var wire 32 0 register(12) [31:0] $end
      $var wire 32 1 register(13) [31:0] $end
      $var wire 32 2 register(14) [31:0] $end
      $var wire 32 3 register(15) [31:0] $end
      $var wire 32 4 register(16) [31:0] $end
      $var wire 32 5 register(17) [31:0] $end
      $var wire 32 6 register(18) [31:0] $end
      $var wire 32 7 register(19) [31:0] $end
      $var wire 32 & register(2) [31:0] $end
      $var wire 32 8 register(20) [31:0] $end
      $var wire 32 9 register(21) [31:0] $end
      $var wire 32 : register(22) [31:0] $end
      $var wire 32 ; register(23) [31:0] $end
      $var wire 32 < register(24) [31:0] $end
      $var wire 32 = register(25) [31:0] $end
      $var wire 32 > register(26) [31:0] $end
      $var wire 32 ? register(27) [31:0] $end
      $var wire 32 @ register(28) [31:0] $end
      $var wire 32 A register(29) [31:0] $end
      $var wire 32 ' register(3) [31:0] $end
      $var wire 32 B register(30) [31:0] $end
      $var wire 32 C register(31) [31:0] $end
      $var wire 32 ( register(4) [31:0] $end
      $var wire 32 ) register(5) [31:0] $end
      $var wire 32 * register(6) [31:0] $end
      $var wire 32 + register(7) [31:0] $end
      $var wire 32 , register(8) [31:0] $end
      $var wire 32 - register(9) [31:0] $end
      $var wire  5 S rs1 [4:0] $end
      $var wire  5 T rs2 [4:0] $end
      $var wire  1 v rst $end
     $upscope $end
    $upscope $end
    $scope module u_Execute_stage0 $end
     $var wire 32 ~ ALU_CONTROL [31:0] $end
     $var wire 32 z DATA_WIDTH [31:0] $end
     $var wire 32 ` a_i [31:0] $end
     $var wire  4 c alu_control [3:0] $end
     $var wire 32 W alu_res_out [31:0] $end
     $var wire 32 _ b_i [31:0] $end
     $var wire 32 G next_sel_address [31:0] $end
     $var wire 32 I pc_address [31:0] $end
     $scope module u_alu0 $end
      $var wire 32 z DATA_WIDTH [31:0] $end
      $var wire 32 ` a_i [31:0] $end
      $var wire 32 _ b_i [31:0] $end
      $var wire  4 c op_i [3:0] $end
      $var wire 32 W res_o [31:0] $end
     $upscope $end
    $upscope $end
    $scope module u_Fetch_pipe0 $end
     $var wire 32 z ADDRESS [31:0] $end
     $var wire 32 z INSTRUCTION [31:0] $end
     $var wire  1 d Jalr $end
     $var wire  1 g branch_result $end
     $var wire  1 u clk $end
     $var wire  1 J flush_pipeline $end
     $var wire 32 H instruc [31:0] $end
     $var wire 32 E instruction_fetch [31:0] $end
     $var wire 32 H instruction_fetch_pp [31:0] $end
     $var wire  1 \ load $end
     $var wire  1 e next_select $end
     $var wire 32 I pre_address [31:0] $end
     $var wire 32 a pre_address_fetch [31:0] $end
     $var wire 32 I pre_pc_fetch_pp [31:0] $end
    $upscope $end
    $scope module u_Fetch_stage0 $end
     $var wire 32 z ADDRESS [31:0] $end
     $var wire  1 $ DM_valid $end
     $var wire 32 z INSTRUCTION [31:0] $end
     $var wire  1 d Jalr $end
     $var wire 32 !! address_in [31:0] $end
     $var wire  1 f branch $end
     $var wire  1 g branch_result $end
     $var wire  1 u clk $end
     $var wire 32 E instruction [31:0] $end
     $var wire 32 E instruction_fetch [31:0] $end
     $var wire  1 \ load $end
     $var wire  4 | mask [3:0] $end
     $var wire 32 W next_address [31:0] $end
     $var wire  1 e next_sel $end
     $var wire 32 V pc_addr_out [31:0] $end
     $var wire 32 a pre_pc [31:0] $end
     $var wire  1 Y request $end
     $var wire  1 v rst $end
     $var wire  1 { we_re $end
     $scope module u_pc0 $end
      $var wire 32 z ADDRESS [31:0] $end
      $var wire  1 $ DM_valid $end
      $var wire  1 d Jalr $end
      $var wire 32 !! address_in [31:0] $end
      $var wire 32 V address_out [31:0] $end
      $var wire  1 f branch $end
      $var wire  1 g branch_result $end
      $var wire  1 u clk $end
      $var wire  1 \ load $end
      $var wire 32 W next_address [31:0] $end
      $var wire  1 e next_sel $end
      $var wire 32 a pre_pc [31:0] $end
      $var wire  1 v rst $end
     $upscope $end
    $upscope $end
    $scope module u_Writeback_stage0 $end
     $var wire 32 z DataWidth [31:0] $end
     $var wire 32 W alu_out [31:0] $end
     $var wire 32 b data_mem_out [31:0] $end
     $var wire  2 h mem_to_reg [1:0] $end
     $var wire 32 G next_sel_address [31:0] $end
     $var wire 32 x rd_mux_out [31:0] $end
    $upscope $end
    $scope module u_memorystage0 $end
     $var wire 32 z DataWidth [31:0] $end
     $var wire 32 W alu_out_address [31:0] $end
     $var wire  1 $ data_valid $end
     $var wire 32 H instruction [31:0] $end
     $var wire  1 \ load $end
     $var wire  4 ] mask [3:0] $end
     $var wire  1 [ mem_en $end
     $var wire 32 _ operand_b [31:0] $end
     $var wire  1 Z request $end
     $var wire  1 [ store $end
     $var wire 32 X store_data_out [31:0] $end
     $var wire  1 [ we_re $end
     $var wire 32 F wrap_load_in [31:0] $end
     $var wire 32 b wrap_load_out [31:0] $end
     $scope module u_wrapper_memory0 $end
      $var wire 32 z DataWidth [31:0] $end
      $var wire  1 \ Load $end
      $var wire  2 s byteadd [1:0] $end
      $var wire 32 _ data_i [31:0] $end
      $var wire 32 X data_o [31:0] $end
      $var wire  1 $ data_valid $end
      $var wire  3 Q fun3 [2:0] $end
      $var wire  4 ] masking [3:0] $end
      $var wire  1 [ mem_en $end
      $var wire 32 F wrap_load_in [31:0] $end
      $var wire 32 b wrap_load_out [31:0] $end
     $upscope $end
    $upscope $end
   $upscope $end
   $scope module u_data_memory0 $end
    $var wire 32 !! INIT_MEM [31:0] $end
    $var wire  8 t address [7:0] $end
    $var wire  1 u clk $end
    $var wire 32 X data_in [31:0] $end
    $var wire 32 F data_out [31:0] $end
    $var wire  1 \ load $end
    $var wire  4 ] mask [3:0] $end
    $var wire  1 Z request $end
    $var wire  1 v rst $end
    $var wire  1 $ valid $end
    $var wire  1 [ we_re $end
    $scope module u_memory $end
     $var wire 32 !! INIT_MEM [31:0] $end
     $var wire  8 t address [7:0] $end
     $var wire  1 u clk $end
     $var wire 32 X data_in [31:0] $end
     $var wire 32 F data_out [31:0] $end
     $var wire  4 ] mask [3:0] $end
     $var wire  1 Z request $end
     $var wire  1 [ we_re $end
    $upscope $end
   $upscope $end
   $scope module u_instruc_mem_top0 $end
    $var wire 32 } INIT_MEM [31:0] $end
    $var wire  8 ^ address [7:0] $end
    $var wire  1 u clk $end
    $var wire 32 w data_in [31:0] $end
    $var wire 32 E data_out [31:0] $end
    $var wire  4 | mask [3:0] $end
    $var wire  1 Y request $end
    $var wire  1 v rst $end
    $var wire  1 # valid $end
    $var wire  1 { we_re $end
    $scope module u_memory $end
     $var wire 32 } INIT_MEM [31:0] $end
     $var wire  8 ^ address [7:0] $end
     $var wire  1 u clk $end
     $var wire 32 w data_in [31:0] $end
     $var wire 32 E data_out [31:0] $end
     $var wire  4 | mask [3:0] $end
     $var wire  1 Y request $end
     $var wire  1 { we_re $end
    $upscope $end
   $upscope $end
  $upscope $end
 $upscope $end
$enddefinitions $end


#0
0#
0$
b00000000000000000000000000000000 %
b00000000000000000000000000000000 &
b00000000000000000000000000000000 '
b00000000000000000000000000000000 (
b00000000000000000000000000000000 )
b00000000000000000000000000000000 *
b00000000000000000000000000000000 +
b00000000000000000000000000000000 ,
b00000000000000000000000000000000 -
b00000000000000000000000000000000 .
b00000000000000000000000000000000 /
b00000000000000000000000000000000 0
b00000000000000000000000000000000 1
b00000000000000000000000000000000 2
b00000000000000000000000000000000 3
b00000000000000000000000000000000 4
b00000000000000000000000000000000 5
b00000000000000000000000000000000 6
b00000000000000000000000000000000 7
b00000000000000000000000000000000 8
b00000000000000000000000000000000 9
b00000000000000000000000000000000 :
b00000000000000000000000000000000 ;
b00000000000000000000000000000000 <
b00000000000000000000000000000000 =
b00000000000000000000000000000000 >
b00000000000000000000000000000000 ?
b00000000000000000000000000000000 @
b00000000000000000000000000000000 A
b00000000000000000000000000000000 B
b00000000000000000000000000000000 C
b00000000000000000000000000000000 D
b00000000000000000000000000000000 E
b00000000000000000000000000000000 F
b00000000000000000000000000000100 G
b00000000000000000000000000000000 H
b00000000000000000000000000000000 I
0J
b00000000000000000000000000000000 K
b00000000000000000000000000000000 L
b00000000000000000000000000000000 M
b00000000000000000000000000000000 N
b00000000000000000000000000000000 O
0P
b000 Q
b0000000 R
b00000 S
b00000 T
b00000 U
b00000000000000000000000000000000 V
b00000000000000000000000000000000 W
b00000000000000000000000000000000 X
1Y
0Z
0[
0\
b0000 ]
b00000000 ^
b00000000000000000000000000000000 _
b00000000000000000000000000000000 `
b00000000000000000000000000000000 a
b00000000000000000000000000000000 b
b0000 c
0d
0e
0f
0g
b00 h
0i
0j
b00000000000000000000000000000000 k
b00000000000000000000000000000000 l
b000 m
b00000000000000000000000000000000 n
0o
0p
0q
0r
b00 s
b00000000 t
0u
0v
b00000000000000000000000000000000 w
b00000000000000000000000000000000 x
0y
b00000000000000000000000000100000 z
0{
b1111 |
b00000000000000000000000000000001 }
b00000000000000000000000000000100 ~
b00000000000000000000000000000000 !!
b00000000000000000000000000000011 "!
b00000000000000000000000000000111 #!
b00000000000000000000000000000101 $!
#1
b00000000000000000000000000100000 D
b00000000101000000000000100010011 E
1u
#2
0u
1v
#3
1#
b00000000101000000000000100010011 H
b00000000000000000000000000001010 K
b00000000000000000000000000000010 L
b00000000000000000000000000000010 M
b00000000000000000000000000001010 N
b00000000101000000000000000000000 O
b0010011 R
b01010 T
b00010 U
b00000000000000000000000000000100 V
b00000000000000000000000000001010 W
b00000001 ^
b00000000000000000000000000001010 _
1j
b00000000000000000000000000001010 n
1p
b10 s
b00000010 t
1u
b00000000000000000000000000001010 x
1y
#4
0u
#5
b00000000000000000000000000001010 &
b00000000001000010000000100110011 E
b00000000000000000000000000001000 V
b00000010 ^
b00000000000000000000000000000100 a
1u
#6
0u
#7
b00000010100000011000000110010011 E
b00000000000000000000000000001000 G
b00000000001000010000000100110011 H
b00000000000000000000000000000100 I
b00000000000000000000000000000010 K
b00000000000000010000000000000010 N
b00000000001000010000000000000000 O
b0110011 R
b00010 S
b00010 T
b00000000000000000000000000001100 V
b00000000000000000000000000010100 W
b00000011 ^
b00000000000000000000000000001010 `
b00000000000000000000000000001000 a
0j
b00000000000000000000000000001010 k
b00000000000000000000000000001010 l
b00000000000000000000000000000010 n
1o
0p
b00 s
b00000101 t
1u
b00000000000000000000000000010100 x
#8
0u
#9
b00000000000000000000000000010100 &
b00000000000000000001010000110111 E
b00000000000000000000000000001100 G
b00000010100000011000000110010011 H
b00000000000000000000000000001000 I
b00000000000000000000000000101000 K
b00000000000000000000000000100011 L
b00000000000000000000100000100010 M
b00000000000000011000000000101000 N
b00000010100000011000000000000000 O
b0010011 R
b00011 S
b01000 T
b00011 U
b00000000000000000000000000010000 V
b00000000000000000000000000101000 W
b00000100 ^
b00000000000000000000000000101000 _
b00000000000000000000000000000000 `
b00000000000000000000000000001100 a
1j
b00000000000000000000000000000000 k
b00000000000000000000000000000000 l
b00000000000000000000000000101000 n
0o
1p
b00001010 t
1u
b00000000000000000000000000101000 x
#10
0u
#11
b00000000000000000000000000101000 '
b00000000000000000001010010010111 E
b00000000000000000000000000010000 G
b00000000000000000001010000110111 H
b00000000000000000000000000001100 I
b00000000000000000000000000000000 K
b00000000000000000000000000001000 L
b00000000000000000000000000001000 M
b00000000000000000001000000000000 N
b00000000000000000001000000000000 O
b001 Q
b0110111 R
b00000 S
b00000 T
b01000 U
b00000000000000000000000000010100 V
b00000000000000000001000000000000 W
b00000101 ^
b00000000000000000001000000000000 _
b00000000000000000000000000010000 a
b1111 c
b100 m
b00000000000000000001000000000000 n
0p
1q
b00000000 t
1u
b00000000000000000001000000000000 x
#12
0u
#13
b00000000000000000001000000000000 ,
b00000000001100010001011001100011 E
b00000000000000000000000000010100 G
b00000000000000000001010010010111 H
b00000000000000000000000000010000 I
b00000000000000000000000000001001 L
b00000000000000000000100000001000 M
b0010111 R
b01001 U
b00000000000000000000000000011000 V
b00000000000000000001000000010000 W
b00000110 ^
b00000000000000000000000000010000 `
b00000000000000000000000000010100 a
b0000 c
1i
0q
1r
b00000100 t
1u
b00000000000000000001000000010000 x
#14
0u
#15
b00000000000000000001000000010000 -
b00000000000000000000000000110011 E
b00000000000000000000000000011000 G
b00000000001100010001011001100011 H
b00000000000000000000000000010100 I
b00000000000000000000000000000011 K
b00000000000000000000000000001100 L
b00000000000000000000000000001100 M
b00000000000000010001100000000010 N
b00000000001100010001000000000000 O
b1100011 R
b00010 S
b00011 T
b01100 U
b00000000000000000000000000011100 V
b00000000000000000000000000100000 W
b00000111 ^
b00000000000000000000000000001100 _
b00000000000000000000000000010100 `
b00000000000000000000000000011000 a
1f
1g
b00000000000000000000000000010100 k
b00000000000000000000000000101000 l
b010 m
b00000000000000000000000000001100 n
0r
b00001000 t
1u
b00000000000000000000000000100000 x
0y
#16
0u
#17
b00000000001000010000000100110011 E
b00000000000000000000000000000100 G
b00000000000000000000000000000000 H
b00000000000000000000000000000000 I
1J
b00000000000000000000000000000000 K
b00000000000000000000000000000000 L
b00000000000000000000000000000000 M
b00000000000000000000000000000000 N
b00000000000000000000000000000000 O
b000 Q
b0000000 R
b00000 S
b00000 T
b00000 U
b00000000000000000000000000100000 V
b00000000000000000000000000000000 W
b00001000 ^
b00000000000000000000000000000000 _
b00000000000000000000000000000000 `
b00000000000000000000000000011100 a
0f
0g
0i
0j
b00000000000000000000000000000000 k
b00000000000000000000000000000000 l
b000 m
b00000000000000000000000000000000 n
b00000000 t
1u
b00000000000000000000000000000000 x
#18
0u
#19
b00000000011000010010100000100011 E
0J
b00000000000000000000000000100100 V
b00001001 ^
b00000000000000000000000000100000 a
1u
#20
0u
#21
b00000001000000010010001110000011 E
b00000000000000000000000000100100 G
b00000000011000010010100000100011 H
b00000000000000000000000000100000 I
b00000000000000000000000000000110 K
b00000000000000000000000000010000 L
b00000000000000000000000000010000 M
b00000000000000010010000000000110 N
b00000000011000010010000000000000 O
b010 Q
b0100011 R
b00010 S
b00110 T
b10000 U
b00000000000000000000000000101000 V
b00000000000000000000000000100100 W
b00000000000000000000000000010000 X
1Z
1[
b1111 ]
b00001010 ^
b00000000000000000000000000010000 _
b00000000000000000000000000010100 `
b00000000000000000000000000100100 a
1j
b00000000000000000000000000010100 k
b001 m
b00000000000000000000000000010000 n
b00001001 t
1u
b00000000000000000000000000100100 x
#22
0u
#23
b00000000110000000000000011101111 E
b00000000000000000000000000101000 G
b00000001000000010010001110000011 H
b00000000000000000000000000100100 I
b00000000000000000000000000010000 K
b00000000000000000000000000000111 L
b00000000000000000000100000000110 M
b00000000000000010010000000010000 N
b00000001000000010010000000000000 O
b0000011 R
b10000 T
b00111 U
b00000000000000000000000000101100 V
0Y
0[
1\
b00001011 ^
b00000000000000000000000000101000 a
b01 h
b000 m
1u
b00000000000000000000000000000000 x
1y
#24
0u
#25
0#
1$
b00000000000000000000000000010000 F
b00000000000000000000000000010100 W
1Y
0Z
0\
b00000000000000000000000000000000 _
b00000000000000000000000000010000 b
0j
b00000101 t
1u
b00000000000000000000000000010000 x
#26
0u
#27
1#
0$
b00000000000000000000000000010000 +
b00000000000000000000000000110011 E
b00000000000000000000000000101100 G
b00000000110000000000000011101111 H
b00000000000000000000000000101000 I
b00000000000000000000000000001100 K
b00000000000000000000000000000001 L
b00000000000000000000100000000000 M
b00000000000000000000000000001100 N
b00000000110000000000000000000000 O
b000 Q
b1101111 R
b00000 S
b01100 T
b00001 U
b00000000000000000000000000110000 V
b00000000000000000000000000110100 W
b00001100 ^
b00000000000000000000000000001100 _
b00000000000000000000000000101000 `
b00000000000000000000000000101100 a
1e
b10 h
1i
1j
b00000000000000000000000000000000 k
b011 m
b00000000000000000000000000001100 n
b00001101 t
1u
b00000000000000000000000000101100 x
#28
0u
#29
b00000000000000000000000000101100 %
b00000000000000000000001010010011 E
b00000000000000000000000000000100 G
b00000000000000000000000000000000 H
b00000000000000000000000000000000 I
1J
b00000000000000000000000000000000 K
b00000000000000000000000000000000 L
b00000000000000000000000000000000 M
b00000000000000000000000000000000 N
b00000000000000000000000000000000 O
b0000000 R
b00000 T
b00000 U
b00000000000000000000000000110100 V
b00000000000000000000000000000000 W
b00001101 ^
b00000000000000000000000000000000 _
b00000000000000000000000000000000 `
b00000000000000000000000000110000 a
0e
b00 h
0i
0j
b000 m
b00000000000000000000000000000000 n
b00000000 t
1u
b00000000000000000000000000000000 x
0y
#30
0u
#31
b00000000001100011000001000110011 E
0J
b00000000000000000000000000111000 V
b00001110 ^
b00000000000000000000000000110100 a
1u
#32
0u
#33
b00000000000000001000000001100111 E
b00000000000000000000000000111000 G
b00000000001100011000001000110011 H
b00000000000000000000000000110100 I
b00000000000000000000000000000011 K
b00000000000000000000000000000100 L
b00000000000000000000000000000100 M
b00000000000000011000100000000010 N
b00000000001100011000000000000000 O
b0110011 R
b00011 S
b00011 T
b00100 U
b00000000000000000000000000111100 V
b00000000000000000000000001010000 W
b00001111 ^
b00000000000000000000000000101000 _
b00000000000000000000000000101000 `
b00000000000000000000000000111000 a
b00000000000000000000000000101000 k
b00000000000000000000000000101000 l
b00000000000000000000000000000011 n
1o
b00010100 t
1u
b00000000000000000000000001010000 x
1y
#34
0u
#35
b00000000000000000000000001010000 (
b00000000000000000000000000000000 E
b00000000000000000000000000111100 G
b00000000000000001000000001100111 H
b00000000000000000000000000111000 I
b00000000000000000000000000000000 K
b00000000000000000000000000000000 L
b00000000000000000000000000000000 M
b00000000000000001000000000000000 N
b00000000000000001000000000000000 O
b1100111 R
b00001 S
b00000 T
b00000 U
b00000000000000000000000001000000 V
b00000000000000000000000000101100 W
b00010000 ^
b00000000000000000000000000000000 _
b00000000000000000000000000101100 `
b00000000000000000000000000111100 a
1d
1j
b00000000000000000000000000101100 k
b00000000000000000000000000000000 l
b00000000000000000000000000000000 n
0o
b00001011 t
1u
b00000000000000000000000000101100 x
#36
0u
#37
b00000000000000000000000000000100 G
b00000000000000000000000000000000 H
b00000000000000000000000000000000 I
1J
b00000000000000000000000000000000 N
b00000000000000000000000000000000 O
b0000000 R
b00000 S
b00000000000000000000000000101100 V
b00000000000000000000000000000000 W
b00001011 ^
b00000000000000000000000000000000 `
b00000000000000000000000001000000 a
0d
0j
b00000000000000000000000000000000 k
b00000000 t
1u
b00000000000000000000000000000000 x
0y
#38
0u
#39
b00000000000000000000000000110011 E
0J
b00000000000000000000000000110000 V
b00001100 ^
b00000000000000000000000000101100 a
1u
#40
0u
#41
b00000000000000000000001010010011 E
b00000000000000000000000000110000 G
b00000000000000000000000000110011 H
b00000000000000000000000000101100 I
b0110011 R
b00000000000000000000000000110100 V
b00001101 ^
b00000000000000000000000000110000 a
1o
1u
1y
#42
0u
#43
b00000000001100011000001000110011 E
b00000000000000000000000000110100 G
b00000000000000000000001010010011 H
b00000000000000000000000000110000 I
b00000000000000000000000000000101 L
b00000000000000000000100000000100 M
b0010011 R
b00101 U
b00000000000000000000000000111000 V
b00001110 ^
b00000000000000000000000000110100 a
1j
0o
1p
1u
#44
0u
#45
b00000000000000001000000001100111 E
b00000000000000000000000000111000 G
b00000000001100011000001000110011 H
b00000000000000000000000000110100 I
b00000000000000000000000000000011 K
b00000000000000000000000000000100 L
b00000000000000000000000000000100 M
b00000000000000011000100000000010 N
b00000000001100011000000000000000 O
b0110011 R
b00011 S
b00011 T
b00100 U
b00000000000000000000000000111100 V
b00000000000000000000000001010000 W
b00001111 ^
b00000000000000000000000000101000 _
b00000000000000000000000000101000 `
b00000000000000000000000000111000 a
0j
b00000000000000000000000000101000 k
b00000000000000000000000000101000 l
b00000000000000000000000000000011 n
1o
0p
b00010100 t
1u
b00000000000000000000000001010000 x
#46
0u
#47
b00000000000000000000000000000000 E
b00000000000000000000000000111100 G
b00000000000000001000000001100111 H
b00000000000000000000000000111000 I
b00000000000000000000000000000000 K
b00000000000000000000000000000000 L
b00000000000000000000000000000000 M
b00000000000000001000000000000000 N
b00000000000000001000000000000000 O
b1100111 R
b00001 S
b00000 T
b00000 U
b00000000000000000000000001000000 V
b00000000000000000000000000101100 W
b00010000 ^
b00000000000000000000000000000000 _
b00000000000000000000000000101100 `
b00000000000000000000000000111100 a
1d
1j
b00000000000000000000000000101100 k
b00000000000000000000000000000000 l
b00000000000000000000000000000000 n
0o
b00001011 t
1u
b00000000000000000000000000101100 x
#48
0u
#49
b00000000000000000000000000000100 G
b00000000000000000000000000000000 H
b00000000000000000000000000000000 I
1J
b00000000000000000000000000000000 N
b00000000000000000000000000000000 O
b0000000 R
b00000 S
b00000000000000000000000000101100 V
b00000000000000000000000000000000 W
b00001011 ^
b00000000000000000000000000000000 `
b00000000000000000000000001000000 a
0d
0j
b00000000000000000000000000000000 k
b00000000 t
1u
b00000000000000000000000000000000 x
0y
#50
0u
#51
b00000000000000000000000000110011 E
0J
b00000000000000000000000000110000 V
b00001100 ^
b00000000000000000000000000101100 a
1u
#52
0u
#53
b00000000000000000000001010010011 E
b00000000000000000000000000110000 G
b00000000000000000000000000110011 H
b00000000000000000000000000101100 I
b0110011 R
b00000000000000000000000000110100 V
b00001101 ^
b00000000000000000000000000110000 a
1o
1u
1y
#54
0u
#55
b00000000001100011000001000110011 E
b00000000000000000000000000110100 G
b00000000000000000000001010010011 H
b00000000000000000000000000110000 I
b00000000000000000000000000000101 L
b00000000000000000000100000000100 M
b0010011 R
b00101 U
b00000000000000000000000000111000 V
b00001110 ^
b00000000000000000000000000110100 a
1j
0o
1p
1u
#56
0u
#57
b00000000000000001000000001100111 E
b00000000000000000000000000111000 G
b00000000001100011000001000110011 H
b00000000000000000000000000110100 I
b00000000000000000000000000000011 K
b00000000000000000000000000000100 L
b00000000000000000000000000000100 M
b00000000000000011000100000000010 N
b00000000001100011000000000000000 O
b0110011 R
b00011 S
b00011 T
b00100 U
b00000000000000000000000000111100 V
b00000000000000000000000001010000 W
b00001111 ^
b00000000000000000000000000101000 _
b00000000000000000000000000101000 `
b00000000000000000000000000111000 a
0j
b00000000000000000000000000101000 k
b00000000000000000000000000101000 l
b00000000000000000000000000000011 n
1o
0p
b00010100 t
1u
b00000000000000000000000001010000 x
#58
0u
#59
b00000000000000000000000000000000 E
b00000000000000000000000000111100 G
b00000000000000001000000001100111 H
b00000000000000000000000000111000 I
b00000000000000000000000000000000 K
b00000000000000000000000000000000 L
b00000000000000000000000000000000 M
b00000000000000001000000000000000 N
b00000000000000001000000000000000 O
b1100111 R
b00001 S
b00000 T
b00000 U
b00000000000000000000000001000000 V
b00000000000000000000000000101100 W
b00010000 ^
b00000000000000000000000000000000 _
b00000000000000000000000000101100 `
b00000000000000000000000000111100 a
1d
1j
b00000000000000000000000000101100 k
b00000000000000000000000000000000 l
b00000000000000000000000000000000 n
0o
b00001011 t
1u
b00000000000000000000000000101100 x
